25

-7
13
11
2
3
-2
-8
14
10
-5

13
-3
-2
-4
-10
9
8
8
-7
12

-3
12
-3
8
4
2
-3
1
4
-8

-7
-1
15
-7
6
2
-8
-2
-9
-5

-4
2
-6
-4
3
-2
-6
-7
12
5

6
6
-3
-9
15
-7
-6
13
-10
-5

1
1
6
14
-5
-10
5
-10
-8
12

-8
-7
-1
14
6
11
14
4
-8
13

4
-1
-5
13
-3
-7
2
4
12
-10

-5
-7
6
9
7
-1
10
9
-2
11

14
-7
-1
8
13
-2
-6
2
5
-3

-3
2
13
3
-9
-4
14
-9
14
15

-2
-5
12
13
-8
-4
5
1
-8
-8

-4
-3
5
-6
4
-6
-4
6
14
-8

3
-5
-10
-7
9
8
-10
5
12
-10

8
7
10
13
1
-8
-8
2
11
-4

-8
-7
11
11
-7
-1
-3
-4
-4
-6

-4
-8
7
-7
-1
-8
-2
-7
11
4

3
15
14
-6
-3
-8
3
13
-10
-1

12
-7
2
-7
-3
5
4
1
-5
-1

4
-9
4
-10
13
-6
12
-4
9
-7

7
14
-8
-1
-6
-5
14
-1
-2
-10

-3
-10
2
-6
6
14
-5
6
-3
7

-5
-10
14
-6
-10
5
-8
8
-10
10

6
-8
-9
4
-3
-9
13
12
-1
14
