23

-10
2
-1
11
14
8
2
15
-3
3
4
10
-10
15
7

9
11
15
-6
6
-3
6
-5

-1
14
6
-2
9
4
-1
8
-4
-9
13
-2
-6
-7
2
-6
14
-3
-7

-5
-3
-9
-7
13
-2
9
-8
-4
14
3
-4

4
4
3
-2
13
-1
11

-4
-1
6
-2
-5
7
-5
-5
-7
3
4
-7
-4
10
-7

-6
-9
-2
-10
-2
-8
9
-5
4
15
-5
7
7
10
-5
3
-8

10
-8
4
7

-1
4
9
2
10
6
-10

-10
13
-10
5
-2
14
5
2

-7
-4
5
13
-3
11
14
6
-2
-1
-5
2
-4
5
11
2
-2

-5
5
-4
10
7
4
-1

3
4
-2
-4
2
6
15
-9
-5
1
13
13
14
-6
-2
-1

12
-4
-5

5
9

4
15
2
8
6
12
14
7
-10
-6
-8
12
13
-8
-9
11

3
-7
-8
-9
-1
-7

3
-2
2
-1

-1
13
-2
3
10

-1
-8
-8
-3
1

11
14
-10
15
10
11
-4
3

-6
2
6
8
-9
8
14
3
6
-1
12
-3
-9
-10
-6
-1
2
8
5
11

-9
6
9
-5
-6
-4
-10
2
3
2
-6
-8
1
7
3
